{ "photos": { "page": 2, "pages": 3, "perpage": 5, "total": "985040",
"photo": [
  { "id": "49872675882", "owner": "31057805@N02", "secret": "1780002f4e", "server": "65535", "farm": 66, "title": "Hello world", "ispublic": 1, "isfriend": 0, "isfamily": 0 },
  { "id": "49871831413", "owner": "31057805@N02", "secret": "a7c55266c3", "server": "65535", "farm": 66, "title": "Asleep", "ispublic": 1, "isfriend": 0, "isfamily": 0 },
  { "id": "49871750128", "owner": "70363861@N00", "secret": "745f67295f", "server": "65535", "farm": 66, "title": "Ross & Snow Geese_IMG_2841", "ispublic": 1, "isfriend": 0, "isfamily": 0 },
  { "id": "49871715373", "owner": "109607866@N07", "secret": "2f1a2c390b", "server": "65535", "farm": 66, "title": "Canada Goose Gosling", "ispublic": 1, "isfriend": 0, "isfamily": 0 },
  { "id": "49872461582", "owner": "15339304@N06", "secret": "53d5548af5", "server": "65535", "farm": 66, "title": "_U7A9188", "ispublic": 1, "isfriend": 0, "isfamily": 0 }
] }, "stat": "ok" }
