{ "photos": { "page": 3, "pages": 3, "perpage": 5, "total": "985040",
"photo": [
  { "id": "49871619293", "owner": "15339304@N06", "secret": "5f34770ef4", "server": "65535", "farm": 66, "title": "_U7A9191", "ispublic": 1, "isfriend": 0, "isfamily": 0 },
  { "id": "49871619228", "owner": "15339304@N06", "secret": "3617a2f491", "server": "65535", "farm": 66, "title": "_U7A9181", "ispublic": 1, "isfriend": 0, "isfamily": 0 },
  { "id": "49872151696", "owner": "15339304@N06", "secret": "de74edfbca", "server": "65535", "farm": 66, "title": "_U7A9183", "ispublic": 1, "isfriend": 0, "isfamily": 0 },
  { "id": "49871619143", "owner": "15339304@N06", "secret": "d75fc4fb5a", "server": "65535", "farm": 66, "title": "_U7A9186", "ispublic": 1, "isfriend": 0, "isfamily": 0 },
  { "id": "49872461362", "owner": "15339304@N06", "secret": "9c4f71dc73", "server": "65535", "farm": 66, "title": "_U7A9187", "ispublic": 1, "isfriend": 0, "isfamily": 0 }
] }, "stat": "ok" }
